lab3/ee180-lab3/sim/tests/srlv/streamwave.vcd
$date
	Wed May 15 20:25:45 2019
$end
$version
	Icarus Verilog
$end
$timescale
	1ps
$end
$scope module userlogic_test $end
$var wire 32 ! data_out [31:0] $end
$var wire 15 " input_buffer_addr [14:0] $end
$var wire 15 # output_buffer_addr [14:0] $end
$var wire 32 $ ul_instr [31:0] $end
$var wire 32 % ul_instr_addr [31:0] $end
$var wire 32 & ul_read_addr [31:0] $end
$var wire 32 ' ul_read_data [31:0] $end
$var wire 32 ( ul_status [31:0] $end
$var wire 32 ) ul_test [31:0] $end
$var wire 32 * ul_write_addr [31:0] $end
$var wire 32 + ul_write_data [31:0] $end
$var wire 16 , ul_write_data_hi [15:0] $end
$var wire 16 - ul_write_data_lo [15:0] $end
$var wire 2 . ul_write_en_hi [1:0] $end
$var wire 2 / ul_write_en_lo [1:0] $end
$var reg 1 0 clk $end
$var reg 32 1 cycle_count [32:1] $end
$var integer 32 2 dump_vars [31:0] $end
$var reg 8192 3 dump_vars_filename [8192:1] $end
$var integer 32 4 i [31:0] $end
$var reg 10 5 image_n_columns [9:0] $end
$var reg 10 6 image_n_rows [9:0] $end
$var reg 8192 7 input_buffer_filename [8192:1] $end
$var reg 8192 8 instr_mem_filename [8192:1] $end
$var reg 32 9 num_cycles [32:1] $end
$var reg 33 : out_end_addr [32:0] $end
$var reg 33 ; out_start_addr [32:0] $end
$var integer 32 < outfile [31:0] $end
$var reg 8192 = output_buffer_filename [8192:1] $end
$var reg 15 > read_addr [14:0] $end
$var integer 32 ? read_input_buffer [31:0] $end
$var integer 32 @ read_instr_mem [31:0] $end
$var integer 32 A result [31:0] $end
$var reg 1 B rst_n $end
$var reg 8192 C test_result_filename [8192:1] $end
$var reg 32 D ul_command [31:0] $end
$var integer 32 E write_output_buffer [31:0] $end
$var integer 32 F write_test_result [31:0] $end
$scope module instr_mem $end
$var wire 14 G addr [13:0] $end
$var wire 1 H clk $end
$var wire 32 I din [31:0] $end
$var wire 1 J we $end
$var reg 32 K dout [31:0] $end
$upscope $end
$scope module input_buffer $end
$var wire 15 L addr [14:0] $end
$var wire 1 H clk $end
$var wire 32 M din [31:0] $end
$var wire 1 N we $end
$var reg 32 O dout [31:0] $end
$upscope $end
$scope module output_buffer $end
$var wire 15 P addr [14:0] $end
$var wire 1 H clk $end
$var wire 32 Q din [31:0] $end
$var wire 4 R we [3:0] $end
$var reg 32 S dout [31:0] $end
$scope begin column[0] $end
$upscope $end
$scope begin column[1] $end
$upscope $end
$scope begin column[2] $end
$upscope $end
$scope begin column[3] $end
$upscope $end
$upscope $end
$scope module ul $end
$var wire 1 T addr_cmd $end
$var wire 1 U addr_iobuf $end
$var wire 1 V addr_local $end
$var wire 1 W addr_status $end
$var wire 1 X addr_test $end
$var wire 1 H clk $end
$var wire 32 Y command [31:0] $end
$var wire 32 Z instr [31:0] $end
$var wire 32 [ instr_addr [31:0] $end
$var wire 32 \ mips_addr [31:0] $end
$var wire 32 ] mips_local_read_data [31:0] $end
$var wire 32 ^ mips_pc [31:0] $end
$var wire 32 _ mips_read_data [31:0] $end
$var wire 1 ` mips_read_en $end
$var wire 4 a mips_write_en [3:0] $end
$var wire 32 b read_addr_hi [31:0] $end
$var wire 32 c read_addr_lo [31:0] $end
$var wire 32 d read_data [31:0] $end
$var wire 16 e read_data_hi [15:0] $end
$var wire 16 f read_data_lo [15:0] $end
$var wire 1 g rst_n $end
$var wire 32 h status [31:0] $end
$var wire 32 i test [31:0] $end
$var wire 32 j write_addr_hi [31:0] $end
$var wire 32 k write_addr_lo [31:0] $end
$var wire 32 l write_data [31:0] $end
$var wire 16 m write_data_hi [15:0] $end
$var wire 16 n write_data_lo [15:0] $end
$var wire 2 o write_en_hi [1:0] $end
$var wire 2 p write_en_lo [1:0] $end
$var reg 32 q cmd_d [31:0] $end
$var reg 1 r read_cmd_d $end
$var reg 1 s read_iobuf_d $end
$var reg 32 t status_reg [31:0] $end
$var reg 32 u test_reg [31:0] $end
$scope module cpu $end
$var wire 32 v alu_op_x_ex [31:0] $end
$var wire 32 w alu_op_x_id [31:0] $end
$var wire 32 x alu_op_y_ex [31:0] $end
$var wire 32 y alu_op_y_id [31:0] $end
$var wire 1 z alu_op_y_zero_ex $end
$var wire 4 { alu_opcode_ex [3:0] $end
$var wire 4 | alu_opcode_id [3:0] $end
$var wire 1 } alu_overflow $end
$var wire 32 ~ alu_result_ex [31:0] $end
$var wire 32 !" alu_result_mem [31:0] $end
$var wire 32 "" alu_sc_result_ex [31:0] $end
$var wire 1 #" atomic_en $end
$var wire 1 H clk $end
$var wire 1 $" en $end
$var wire 1 %" en_if $end
$var wire 32 &" instr [31:0] $end
$var wire 32 '" instr_id [31:0] $end
$var wire 30 (" instr_number_id [29:0] $end
$var wire 32 )" instr_sav [31:0] $end
$var wire 32 *" jr_pc_id [31:0] $end
$var wire 1 +" jump_branch_id $end
$var wire 1 ," jump_reg_id $end
$var wire 1 -" jump_target_id $end
$var wire 32 ." mem_addr [31:0] $end
$var wire 1 /" mem_atomic_ex $end
$var wire 1 0" mem_atomic_id $end
$var wire 1 1" mem_byte_ex $end
$var wire 1 2" mem_byte_id $end
$var wire 1 3" mem_byte_mem $end
$var wire 32 4" mem_out [31:0] $end
$var wire 32 5" mem_read_data [31:0] $end
$var wire 32 6" mem_read_data_byte_extend [31:0] $end
$var wire 8 7" mem_read_data_byte_select [7:0] $end
$var wire 1 ` mem_read_en $end
$var wire 1 8" mem_read_ex $end
$var wire 1 9" mem_read_id $end
$var wire 1 :" mem_read_mem $end
$var wire 1 ;" mem_sc_ex $end
$var wire 1 <" mem_sc_id $end
$var wire 1 =" mem_sc_mask_id $end
$var wire 1 >" mem_signextend_ex $end
$var wire 1 ?" mem_signextend_id $end
$var wire 1 @" mem_signextend_mem $end
$var wire 1 A" mem_we_ex $end
$var wire 1 B" mem_we_id $end
$var wire 32 C" mem_write_data [31:0] $end
$var wire 32 D" mem_write_data_ex [31:0] $end
$var wire 32 E" mem_write_data_id [31:0] $end
$var wire 4 F" mem_write_en [3:0] $end
$var wire 1 G" movn_ex $end
$var wire 1 H" movn_id $end
$var wire 1 I" movz_ex $end
$var wire 1 J" movz_id $end
$var wire 32 K" pc [31:0] $end
$var wire 32 L" pc_id [31:0] $end
$var wire 32 M" pc_if [31:0] $end
$var wire 1 N" reg_we_cond_ex $end
$var wire 1 O" reg_we_ex $end
$var wire 1 P" reg_we_id $end
$var wire 1 Q" reg_we_mem $end
$var wire 1 R" reg_we_wb $end
$var wire 5 S" reg_write_addr_ex [4:0] $end
$var wire 5 T" reg_write_addr_id [4:0] $end
$var wire 5 U" reg_write_addr_mem [4:0] $end
$var wire 5 V" reg_write_addr_wb [4:0] $end
$var wire 32 W" reg_write_data_mem [31:0] $end
$var wire 32 X" reg_write_data_wb [31:0] $end
$var wire 5 Y" rs_addr_id [4:0] $end
$var wire 32 Z" rs_data_id [31:0] $end
$var wire 1 [" rst $end
$var wire 1 \" rst_id $end
$var wire 5 ]" rt_addr_id [4:0] $end
$var wire 32 ^" rt_data_id [31:0] $end
$var wire 32 _" sc_result [31:0] $end
$var wire 1 `" stall $end
$var wire 1 a" stall_r $end
$scope module if_stage $end
$var wire 1 H clk $end
$var wire 1 %" en $end
$var wire 26 b" instr_id [25:0] $end
$var wire 32 c" j_addr [31:0] $end
$var wire 32 d" jr_pc [31:0] $end
$var wire 1 +" jump_branch $end
$var wire 1 ," jump_reg $end
$var wire 1 -" jump_target $end
$var wire 32 e" pc [31:0] $end
$var wire 32 f" pc_id [31:0] $end
$var wire 32 g" pc_id_p4 [31:0] $end
$var wire 32 h" pc_next [31:0] $end
$var wire 1 [" rst $end
$scope module pc_reg $end
$var wire 1 H clk $end
$var wire 32 i" d [31:0] $end
$var wire 1 %" en $end
$var wire 1 [" r $end
$var reg 32 j" q [31:0] $end
$upscope $end
$upscope $end
$scope module pc_if2id $end
$var wire 1 H clk $end
$var wire 32 k" d [31:0] $end
$var wire 1 %" en $end
$var wire 1 [" r $end
$var reg 32 l" q [31:0] $end
$upscope $end
$scope module instr_sav_dff $end
$var wire 1 H clk $end
$var wire 32 m" d [31:0] $end
$var wire 1 $" en $end
$var wire 1 [" r $end
$var reg 32 n" q [31:0] $end
$upscope $end
$scope module stall_f_dff $end
$var wire 1 H clk $end
$var wire 1 `" d $end
$var wire 1 $" en $end
$var wire 1 [" r $end
$var reg 1 o" q $end
$upscope $end
$scope module d_stage $end
$var wire 32 p" alu_op_x [31:0] $end
$var wire 32 q" alu_op_y [31:0] $end
$var wire 32 r" alu_result_ex [31:0] $end
$var wire 1 /" atomic_ex $end
$var wire 1 0" atomic_id $end
$var wire 1 s" forward_rs_mem $end
$var wire 6 t" funct [5:0] $end
$var wire 32 u" imm [31:0] $end
$var wire 32 v" imm_sign_extend [31:0] $end
$var wire 32 w" imm_upper [31:0] $end
$var wire 16 x" immediate [15:0] $end
$var wire 32 y" instr [31:0] $end
$var wire 1 z" isALUImm $end
$var wire 1 {" isBEQ $end
$var wire 1 |" isBGEZAL $end
$var wire 1 }" isBGEZNL $end
$var wire 1 ~" isBGTZ $end
$var wire 1 !# isBLEZ $end
$var wire 1 "# isBLTZAL $end
$var wire 1 ## isBLTZNL $end
$var wire 1 $# isBNE $end
$var wire 1 %# isBranchLink $end
$var wire 1 &# isEqual $end
$var wire 1 '# isJ $end
$var wire 1 (# isLUI $end
$var wire 1 )# isSLL $end
$var wire 1 *# isSLLV $end
$var wire 1 +# isSRA $end
$var wire 1 ,# isSRAV $end
$var wire 1 -# isSRL $end
$var wire 1 .# isSRLV $end
$var wire 1 /# isShift $end
$var wire 1 0# isShiftImm $end
$var wire 32 1# jr_pc [31:0] $end
$var wire 1 +" jump_branch $end
$var wire 1 ," jump_reg $end
$var wire 1 -" jump_target $end
$var wire 1 2" mem_byte $end
$var wire 1 9" mem_read $end
$var wire 1 8" mem_read_ex $end
$var wire 1 <" mem_sc_id $end
$var wire 1 =" mem_sc_mask_id $end
$var wire 1 ?" mem_signextend $end
$var wire 1 B" mem_we $end
$var wire 32 2# mem_write_data [31:0] $end
$var wire 1 H" movn $end
$var wire 1 J" movz $end
$var wire 6 3# op [5:0] $end
$var wire 32 4# pc [31:0] $end
$var wire 5 5# rd_addr [4:0] $end
$var wire 1 6# read_from_rs $end
$var wire 1 7# read_from_rt $end
$var wire 1 P" reg_we $end
$var wire 1 O" reg_we_ex $end
$var wire 1 Q" reg_we_mem $end
$var wire 5 8# reg_write_addr [4:0] $end
$var wire 5 9# reg_write_addr_ex [4:0] $end
$var wire 5 :# reg_write_addr_mem [4:0] $end
$var wire 32 ;# reg_write_data_mem [31:0] $end
$var wire 5 <# rs_addr [4:0] $end
$var wire 32 =# rs_data [31:0] $end
$var wire 32 ># rs_data_in [31:0] $end
$var wire 1 ?# rs_mem_dependency $end
$var wire 5 @# rt_addr [4:0] $end
$var wire 32 A# rt_data [31:0] $end
$var wire 32 B# rt_data_in [31:0] $end
$var wire 5 C# shamt [4:0] $end
$var wire 32 D# shift_amount [31:0] $end
$var wire 1 `" stall $end
$var wire 1 E# use_imm $end
$var reg 4 F# alu_opcode [3:0] $end
$upscope $end
$scope module atomic $end
$var wire 1 [" ar $end
$var wire 1 H clk $end
$var wire 1 0" d $end
$var wire 1 #" en $end
$var wire 1 \" r $end
$var reg 1 G# q $end
$upscope $end
$scope module sc $end
$var wire 1 [" ar $end
$var wire 1 H clk $end
$var wire 1 <" d $end
$var wire 1 $" en $end
$var wire 1 \" r $end
$var reg 1 H# q $end
$upscope $end
$scope module alu_op_x_id2ex $end
$var wire 1 [" ar $end
$var wire 1 H clk $end
$var wire 32 I# d [31:0] $end
$var wire 1 $" en $end
$var wire 1 \" r $end
$var reg 32 J# q [31:0] $end
$upscope $end
$scope module alu_op_y_id2ex $end
$var wire 1 [" ar $end
$var wire 1 H clk $end
$var wire 32 K# d [31:0] $end
$var wire 1 $" en $end
$var wire 1 \" r $end
$var reg 32 L# q [31:0] $end
$upscope $end
$scope module alu_opcode_id2ex $end
$var wire 1 [" ar $end
$var wire 1 H clk $end
$var wire 4 M# d [3:0] $end
$var wire 1 $" en $end
$var wire 1 \" r $end
$var reg 4 N# q [3:0] $end
$upscope $end
$scope module movn $end
$var wire 1 [" ar $end
$var wire 1 H clk $end
$var wire 1 H" d $end
$var wire 1 $" en $end
$var wire 1 \" r $end
$var reg 1 O# q $end
$upscope $end
$scope module movz $end
$var wire 1 [" ar $end
$var wire 1 H clk $end
$var wire 1 J" d $end
$var wire 1 $" en $end
$var wire 1 \" r $end
$var reg 1 P# q $end
$upscope $end
$scope module mem_write_data_id2ex $end
$var wire 1 [" ar $end
$var wire 1 H clk $end
$var wire 32 Q# d [31:0] $end
$var wire 1 $" en $end
$var wire 1 \" r $end
$var reg 32 R# q [31:0] $end
$upscope $end
$scope module mem_we_id2ex $end
$var wire 1 [" ar $end
$var wire 1 H clk $end
$var wire 1 S# d $end
$var wire 1 $" en $end
$var wire 1 \" r $end
$var reg 1 T# q $end
$upscope $end
$scope module mem_read_id2ex $end
$var wire 1 [" ar $end
$var wire 1 H clk $end
$var wire 1 9" d $end
$var wire 1 $" en $end
$var wire 1 \" r $end
$var reg 1 U# q $end
$upscope $end
$scope module mem_byte_id2ex $end
$var wire 1 [" ar $end
$var wire 1 H clk $end
$var wire 1 2" d $end
$var wire 1 $" en $end
$var wire 1 \" r $end
$var reg 1 V# q $end
$upscope $end
$scope module mem_signextend_id2ex $end
$var wire 1 [" ar $end
$var wire 1 H clk $end
$var wire 1 ?" d $end
$var wire 1 $" en $end
$var wire 1 \" r $end
$var reg 1 W# q $end
$upscope $end
$scope module reg_write_addr_id2ex $end
$var wire 1 [" ar $end
$var wire 1 H clk $end
$var wire 5 X# d [4:0] $end
$var wire 1 $" en $end
$var wire 1 \" r $end
$var reg 5 Y# q [4:0] $end
$upscope $end
$scope module reg_we_id2ex $end
$var wire 1 [" ar $end
$var wire 1 H clk $end
$var wire 1 P" d $end
$var wire 1 $" en $end
$var wire 1 \" r $end
$var reg 1 Z# q $end
$upscope $end
$scope module x_stage $end
$var wire 1 [# add_check $end
$var wire 1 \# add_neg_over $end
$var wire 1 ]# add_pos_over $end
$var wire 1 ^# alu_neg $end
$var wire 32 _# alu_op_x [31:0] $end
$var wire 32 `# alu_op_x_signed [31:0] $end
$var wire 32 a# alu_op_y [31:0] $end
$var wire 32 b# alu_op_y_signed [31:0] $end
$var wire 1 z alu_op_y_zero $end
$var wire 4 c# alu_opcode [3:0] $end
$var wire 1 } alu_overflow $end
$var wire 1 d# sub_check $end
$var wire 1 e# sub_neg_over $end
$var wire 1 f# sub_pos_over $end
$var wire 1 g# x_neg $end
$var wire 1 h# y_neg $end
$var reg 32 i# alu_result [31:0] $end
$upscope $end
$scope module alu_result_ex2mem $end
$var wire 1 H clk $end
$var wire 32 j# d [31:0] $end
$var wire 1 $" en $end
$var wire 1 [" r $end
$var reg 32 k# q [31:0] $end
$upscope $end
$scope module mem_read_ex2mem $end
$var wire 1 H clk $end
$var wire 1 8" d $end
$var wire 1 $" en $end
$var wire 1 [" r $end
$var reg 1 l# q $end
$upscope $end
$scope module mem_byte_ex2mem $end
$var wire 1 H clk $end
$var wire 1 1" d $end
$var wire 1 $" en $end
$var wire 1 [" r $end
$var reg 1 m# q $end
$upscope $end
$scope module mem_signextend_ex2mem $end
$var wire 1 H clk $end
$var wire 1 >" d $end
$var wire 1 $" en $end
$var wire 1 [" r $end
$var reg 1 n# q $end
$upscope $end
$scope module reg_write_addr_ex2mem $end
$var wire 1 H clk $end
$var wire 5 o# d [4:0] $end
$var wire 1 $" en $end
$var wire 1 [" r $end
$var reg 5 p# q [4:0] $end
$upscope $end
$scope module reg_we_ex2mem $end
$var wire 1 H clk $end
$var wire 1 O" d $end
$var wire 1 $" en $end
$var wire 1 [" r $end
$var reg 1 q# q $end
$upscope $end
$scope module reg_write_data_mem2wb $end
$var wire 1 H clk $end
$var wire 32 r# d [31:0] $end
$var wire 1 $" en $end
$var wire 1 [" r $end
$var reg 32 s# q [31:0] $end
$upscope $end
$scope module reg_write_addr_mem2wb $end
$var wire 1 H clk $end
$var wire 5 t# d [4:0] $end
$var wire 1 $" en $end
$var wire 1 [" r $end
$var reg 5 u# q [4:0] $end
$upscope $end
$scope module reg_we_mem2wb $end
$var wire 1 H clk $end
$var wire 1 Q" d $end
$var wire 1 $" en $end
$var wire 1 [" r $end
$var reg 1 v# q $end
$upscope $end
$scope module w_stage $end
$var wire 1 H clk $end
$var wire 1 $" en $end
$var wire 1 R" reg_we $end
$var wire 5 w# reg_write_addr [4:0] $end
$var wire 32 x# reg_write_data [31:0] $end
$var wire 5 y# rs_addr [4:0] $end
$var wire 32 z# rs_data [31:0] $end
$var wire 5 {# rt_addr [4:0] $end
$var wire 32 |# rt_data [31:0] $end
$upscope $end
$upscope $end
$scope module mips_local_store $end
$var wire 12 }# addr [11:0] $end
$var wire 1 H clk $end
$var wire 32 ~# din [31:0] $end
$var wire 4 !$ we [3:0] $end
$var reg 32 "$ dout [31:0] $end
$scope begin column[0] $end
$upscope $end
$scope begin column[1] $end
$upscope $end
$scope begin column[2] $end
$upscope $end
$scope begin column[3] $end
$upscope $end
$upscope $end
$upscope $end
$upscope $end
$enddefinitions $end
#0
$dumpvars
bx "$
b0 !$
b0 ~#
b0 }#
bx |#
bx {#
bx z#
bx y#
b0 x#
b0 w#
0v#
b0 u#
b0 t#
b0 s#
b0 r#
0q#
b0 p#
b0 o#
0n#
0m#
0l#
b0 k#
b0 j#
b0 i#
0h#
0g#
0f#
0e#
0d#
b0 c#
b0 b#
b0 a#
b0 `#
b0 _#
0^#
0]#
0\#
0[#
0Z#
b0 Y#
bx X#
0W#
0V#
0U#
0T#
xS#
b0 R#
bx Q#
0P#
0O#
b0 N#
b1101 M#
b0 L#
bx K#
b0 J#
bx I#
0H#
0G#
b1101 F#
xE#
b0xxxxx D#
bx C#
bx B#
bx A#
bx @#
0?#
bx >#
bx =#
bx <#
b0 ;#
b0 :#
b0 9#
bx 8#
x7#
x6#
bx 5#
b0 4#
bx 3#
bx 2#
bx 1#
x0#
x/#
x.#
x-#
x,#
x+#
x*#
x)#
x(#
x'#
x&#
x%#
x$#
x##
x"#
x!#
x~"
x}"
x|"
x{"
xz"
bx y"
bx x"
bx0000000000000000 w"
bx v"
bx u"
bx t"
0s"
b0 r"
bx q"
bx p"
0o"
b0 n"
bx m"
b0 l"
b0 k"
b0 j"
bx i"
bx h"
b100 g"
b0 f"
b0 e"
bx d"
b0xxxxxxxxxxxxxxxxxxxxxxxxxx00 c"
bx b"
0a"
0`"
b0 _"
bx ^"
bx ]"
0\"
0["
bx Z"
bx Y"
b0 X"
b0 W"
b0 V"
b0 U"
bx T"
b0 S"
0R"
0Q"
xP"
0O"
0N"
b0 M"
b0 L"
b0 K"
xJ"
0I"
xH"
0G"
b0 F"
bx E"
b0 D"
b0 C"
xB"
0A"
0@"
x?"
0>"
0="
x<"
0;"
0:"
x9"
08"
bx 7"
b0xxxxxxxx 6"
bx 5"
bx 4"
03"
x2"
01"
00"
0/"
b0 ."
x-"
x,"
x+"
bx *"
b0 )"
b0 ("
bx '"
bx &"
1%"
1$"
x#"
b0 ""
b0 !"
b0 ~
0}
b1101 |
b0 {
1z
bx y
b0 x
bx w
b0 v
bx u
bx t
xs
xr
bx q
b0 p
b0 o
b0 n
b0 m
b0 l
b0 k
b0 j
bx i
bx h
0g
bx f
bx e
bx d
b0 c
b0 b
b0 a
0`
bx _
b0 ^
bx ]
b0 \
b0 [
bx Z
b0xxxxxxxxxxxxxxxxxxxx10 Y
0X
0W
1V
0U
0T
bx S
b0 R
b0 Q
b0 P
bx O
0N
b0 M
b0 L
bx K
0J
b0 I
0H
b0 G
b1 F
b0 E
b0xxxxxxxxxxxxxxxxxxxx10 D
b1110100011001010111001101110100011100110010111101110011011100100110110001110110001011110111010001100101011100110111010000101110011100100110010101110011011101010110110001110100 C
0B
b1 A
b1 @
b0 ?
b0 >
bx =
bx <
b0 ;
b100000000000000000 :
b1111101000 9
b11101000110010101110011011101000111001100101111011100110111001001101100011101100010111101100010011101010110100101101100011001000010111101100001011100000111000000101110011010000110010101111000 8
bx 7
bx 6
bx 5
bx 4
b1110100011001010111001101110100011100110010111101110011011100100110110001110110001011110111001101110100011100100110010101100001011011010111011101100001011101100110010100101110011101100110001101100100 3
b1 2
b0 1
00
b0 /
b0 .
b0 -
b0 ,
b0 +
b0 *
bx )
bx (
bx '
b0 &
b0 %
bx $
b0 #
b0 "
bx !
$end
#5000
0/#
b0 D#
b100 h"
b100 i"
b0 w
b0 p"
b0 I#
00#
b0 =#
b0 *"
b0 d"
b0 1#
0%#
0#"
0+"
b10000000000000100000000000000000 y
b10000000000000100000000000000000 q"
b10000000000000100000000000000000 K#
1P"
0S#
b0 Z"
b0 >#
b0 z#
0}"
0|"
0~"
0!#
0##
0"#
b10000 T"
b10000 8#
b10000 X#
0)#
0-#
0+#
0*#
0.#
0,#
09"
0,"
b1100 F#
b1100 |
b1100 M#
b11111111111111111000000000000010 v"
b10000000000000100000000000000000 u"
0{"
0$#
0'#
0-"
1E#
06#
07#
1(#
0z"
0B"
02"
1?"
0<"
b1111 3#
b0 Y"
b0 <#
b0 y#
b10000 ]"
b10000 @#
b10000 {#
b10000 5#
b0 C#
0H"
0J"
b10 t"
b10000000000000100000000000000000 w"
b1000000000000010 x"
b100001000000000000010 b"
b10000100000000000001000 c"
b111100000100001000000000000010 '"
b111100000100001000000000000010 y"
b111100000100001000000000000010 K
b111100000100001000000000000010 $
b111100000100001000000000000010 Z
b111100000100001000000000000010 &"
b111100000100001000000000000010 m"
bx S
bx "$
b0 u
b0 )
b0 i
b0 t
b0 (
b0 h
0s
0r
b0 q
10
1H
#10000
00
0H
#15000
bx "$
bx S
10
1H
#20000
1["
00
0H
b0xxxxxxxxxxxxxxxxxxxx00 D
b0xxxxxxxxxxxxxxxxxxxx00 Y
1B
1g
#25000
0V
b1000 h"
b1000 i"
bx ,
bx m
bx +
bx Q
bx -
bx n
0]#
1f#
1^#
b1 G
1O"
bx l
bx C"
bx ~#
1h#
b10000000000000100000000000000000 i#
b10000000000000100000000000000000 ~
b10000000000000100000000000000000 r"
1W
b10000000000000100000000000000000 \
b10000000000000100000000000000000 ."
b10000000000000100000000000000000 ""
b10000000000000100000000000000000 j#
b1 %
b1 [
bx S
bx "$
1Z#
1N"
b10000 Y#
b10000 S"
b10000 9#
b10000 o#
1W#
1>"
bx R#
bx D"
b1100 N#
b1100 {
b1100 c#
b10000000000000100000000000000000 L#
b10000000000000100000000000000000 b#
0z
b10000000000000100000000000000000 x
b10000000000000100000000000000000 a#
b111100000100001000000000000010 n"
b111100000100001000000000000010 )"
b100 j"
b100 M"
b100 e"
b100 k"
b100 ^
b100 K"
10
1H
#30000
00
0H
b1111100111 1
b0xxxxxxxxxxxxxxxxxxxx01 D
b0xxxxxxxxxxxxxxxxxxxx01 Y
#35000
b1 y
b1 q"
b1 K#
b10001 T"
b10001 8#
b10001 X#
b11 F#
b11 |
b11 M#
b1 v"
b1 u"
b1100 h"
b1100 i"
16#
0(#
1z"
b1101 3#
b10001 ]"
b10001 @#
b10001 {#
b0 5#
b1 t"
b10000000000000000 w"
b1 x"
b100010000000000000001 b"
b10001000000000000000100 c"
b10 G
b110100000100010000000000000001 '"
b110100000100010000000000000001 y"
b10 %
b10 [
b1 ("
b10000000000000100000000000000000 W"
b10000000000000100000000000000000 ;#
b10000000000000100000000000000000 r#
bx 6"
bx "$
bx S
b110100000100010000000000000001 K
b110100000100010000000000000001 $
b110100000100010000000000000001 Z
b110100000100010000000000000001 &"
b110100000100010000000000000001 m"
b1000 j"
b1000 M"
b1000 e"
b1000 k"
b1000 ^
b1000 K"
b100 l"
b1000 g"
b100 L"
b100 f"
b100 4#
b10000000000000100000000000000000 k#
b10000000000000100000000000000000 !"
1n#
1@"
b10000 p#
b10000 U"
b10000 :#
b10000 t#
1q#
1Q"
10
1H
#40000
00
0H
b1111100110 1
#45000
b11011110101011110000000000000000 y
b11011110101011110000000000000000 q"
b11011110101011110000000000000000 K#
b11011110101011110000000000000000 u"
b1000 T"
b1000 8#
b1000 X#
b1100 F#
b1100 |
b1100 M#
b11111111111111111101111010101111 v"
1V
b10000 h"
b10000 i"
06#
1(#
07#
0z"
b1111 3#
b1000 ]"
b1000 @#
b1000 {#
b11011 5#
b11010 C#
b101111 t"
b11011110101011110000000000000000 w"
b1101111010101111 x"
b10001101111010101111 b"
b1000110111101010111100 c"
0^#
b11 G
b111100000010001101111010101111 '"
b111100000010001101111010101111 y"
0f#
0h#
b1 i#
b1 ~
b1 r"
0U
0W
b1 \
b1 ."
b1 ""
b1 j#
b10 ("
b11 %
b11 [
b111100000010001101111010101111 K
b111100000010001101111010101111 $
b111100000010001101111010101111 Z
b111100000010001101111010101111 &"
b111100000010001101111010101111 m"
bx S
bx "$
1v#
1R"
b10000 u#
b10000 V"
b10000 w#
b10000000000000100000000000000000 s#
b10000000000000100000000000000000 X"
b10000000000000100000000000000000 x#
b10001 Y#
b10001 S"
b10001 9#
b10001 o#
b11 N#
b11 {
b11 c#
b1 L#
b1 b#
b1 x
b1 a#
b110100000100010000000000000001 n"
b110100000100010000000000000001 )"
b1000 l"
b1100 g"
b1000 L"
b1000 f"
b1000 4#
b1100 j"
b1100 M"
b1100 e"
b1100 k"
b1100 ^
b1100 K"
10
1H
#50000
00
0H
b1111100101 1
#55000
1/#
10#
b0 y
b0 q"
b0 K#
b0 T"
b0 8#
b0 X#
b0 E"
b0 2#
b0 Q#
b0 A#
1&#
b0 ^"
b0 B#
b0 |#
1)#
b1010 F#
b1010 |
b1010 M#
b0 v"
b0 u"
b10100 h"
b10100 i"
0V
1U
b100000000000000 "
b100000000000000 L
0E#
06#
17#
0(#
b0 3#
b0 ]"
b0 @#
b0 {#
b0 5#
b0 C#
b0 t"
b0 w"
b0 x"
b0 b"
b0 c"
b100 G
0]#
1f#
1^#
b100000000000000 j
b100000000000000 *
b100000000000000 k
b100000000000000 b
b100000000000000 &
b100000000000000 c
b0 '"
b0 y"
b100 %
b100 [
b11 ("
1h#
b11011110101011110000000000000000 i#
b11011110101011110000000000000000 ~
b11011110101011110000000000000000 r"
b11011110101011110000000000000000 \
b11011110101011110000000000000000 ."
b11011110101011110000000000000000 ""
b11011110101011110000000000000000 j#
b1 W"
b1 ;#
b1 r#
bx "$
bx S
b0 K
b0 $
b0 Z
b0 &"
b0 m"
b10000 j"
b10000 M"
b10000 e"
b10000 k"
b10000 ^
b10000 K"
b1100 l"
b10000 g"
b1100 L"
b1100 f"
b1100 4#
b111100000010001101111010101111 n"
b111100000010001101111010101111 )"
b11011110101011110000000000000000 L#
b11011110101011110000000000000000 b#
b11011110101011110000000000000000 x
b11011110101011110000000000000000 a#
b1100 N#
b1100 {
b1100 c#
b1000 Y#
b1000 S"
b1000 9#
b1000 o#
b1 k#
b1 !"
b10001 p#
b10001 U"
b10001 :#
b10001 t#
10
1H
#60000
00
0H
b1111100100 1
#65000
1V
0U
b0 "
b0 L
b11000 h"
b11000 i"
b0 ,
b0 m
b0 +
b0 Q
b0 -
b0 n
0^#
b0 j
b0 *
b0 k
b0 b
b0 &
b0 c
b101 G
b11011110101011110000000000000000 W"
b11011110101011110000000000000000 ;#
b11011110101011110000000000000000 r#
b0 l
b0 C"
b0 ~#
0f#
0h#
b0 i#
b0 ~
b0 r"
b0 \
b0 ."
b0 ""
b0 j#
b100 ("
b101 %
b101 [
bx S
bx "$
b10001 u#
b10001 V"
b10001 w#
b1 s#
b1 X"
b1 x#
b1000 p#
b1000 U"
b1000 :#
b1000 t#
b11011110101011110000000000000000 k#
b11011110101011110000000000000000 !"
b0 Y#
b0 S"
b0 9#
b0 o#
b0 R#
b0 D"
b1010 N#
b1010 {
b1010 c#
b0 L#
b0 b#
1z
b0 x
b0 a#
b0 n"
b0 )"
b10000 l"
b10100 g"
b10000 L"
b10000 f"
b10000 4#
b10100 j"
b10100 M"
b10100 e"
b10100 k"
b10100 ^
b10100 K"
10
1H
#70000
00
0H
b1111100011 1
#75000
b11100 h"
b11100 i"
b110 G
b110 %
b110 [
b101 ("
b0 W"
b0 ;#
b0 r#
bx "$
bx S
b11000 j"
b11000 M"
b11000 e"
b11000 k"
b11000 ^
b11000 K"
b10100 l"
b11000 g"
b10100 L"
b10100 f"
b10100 4#
b0 k#
b0 !"
b0 p#
b0 U"
b0 :#
b0 t#
b11011110101011110000000000000000 s#
b11011110101011110000000000000000 X"
b11011110101011110000000000000000 x#
b1000 u#
b1000 V"
b1000 w#
10
1H
#80000
00
0H
b1111100010 1
