lab3/ee180-lab3/sim/tests/jr/streamwave.vcd
$date
	Sat May 18 17:18:19 2019
$end
$version
	Icarus Verilog
$end
$timescale
	1ps
$end
$scope module userlogic_test $end
$var wire 32 ! data_out [31:0] $end
$var wire 15 " input_buffer_addr [14:0] $end
$var wire 15 # output_buffer_addr [14:0] $end
$var wire 32 $ ul_instr [31:0] $end
$var wire 32 % ul_instr_addr [31:0] $end
$var wire 32 & ul_read_addr [31:0] $end
$var wire 32 ' ul_read_data [31:0] $end
$var wire 32 ( ul_status [31:0] $end
$var wire 32 ) ul_test [31:0] $end
$var wire 32 * ul_write_addr [31:0] $end
$var wire 32 + ul_write_data [31:0] $end
$var wire 16 , ul_write_data_hi [15:0] $end
$var wire 16 - ul_write_data_lo [15:0] $end
$var wire 2 . ul_write_en_hi [1:0] $end
$var wire 2 / ul_write_en_lo [1:0] $end
$var reg 1 0 clk $end
$var reg 32 1 cycle_count [32:1] $end
$var integer 32 2 dump_vars [31:0] $end
$var reg 8192 3 dump_vars_filename [8192:1] $end
$var integer 32 4 i [31:0] $end
$var reg 10 5 image_n_columns [9:0] $end
$var reg 10 6 image_n_rows [9:0] $end
$var reg 8192 7 input_buffer_filename [8192:1] $end
$var reg 8192 8 instr_mem_filename [8192:1] $end
$var reg 32 9 num_cycles [32:1] $end
$var reg 33 : out_end_addr [32:0] $end
$var reg 33 ; out_start_addr [32:0] $end
$var integer 32 < outfile [31:0] $end
$var reg 8192 = output_buffer_filename [8192:1] $end
$var reg 15 > read_addr [14:0] $end
$var integer 32 ? read_input_buffer [31:0] $end
$var integer 32 @ read_instr_mem [31:0] $end
$var integer 32 A result [31:0] $end
$var reg 1 B rst_n $end
$var reg 8192 C test_result_filename [8192:1] $end
$var reg 32 D ul_command [31:0] $end
$var integer 32 E write_output_buffer [31:0] $end
$var integer 32 F write_test_result [31:0] $end
$scope module instr_mem $end
$var wire 14 G addr [13:0] $end
$var wire 1 H clk $end
$var wire 32 I din [31:0] $end
$var wire 1 J we $end
$var reg 32 K dout [31:0] $end
$upscope $end
$scope module input_buffer $end
$var wire 15 L addr [14:0] $end
$var wire 1 H clk $end
$var wire 32 M din [31:0] $end
$var wire 1 N we $end
$var reg 32 O dout [31:0] $end
$upscope $end
$scope module output_buffer $end
$var wire 15 P addr [14:0] $end
$var wire 1 H clk $end
$var wire 32 Q din [31:0] $end
$var wire 4 R we [3:0] $end
$var reg 32 S dout [31:0] $end
$scope begin column[0] $end
$upscope $end
$scope begin column[1] $end
$upscope $end
$scope begin column[2] $end
$upscope $end
$scope begin column[3] $end
$upscope $end
$upscope $end
$scope module ul $end
$var wire 1 T addr_cmd $end
$var wire 1 U addr_iobuf $end
$var wire 1 V addr_local $end
$var wire 1 W addr_status $end
$var wire 1 X addr_test $end
$var wire 1 H clk $end
$var wire 32 Y command [31:0] $end
$var wire 32 Z instr [31:0] $end
$var wire 32 [ instr_addr [31:0] $end
$var wire 32 \ mips_addr [31:0] $end
$var wire 32 ] mips_local_read_data [31:0] $end
$var wire 32 ^ mips_pc [31:0] $end
$var wire 32 _ mips_read_data [31:0] $end
$var wire 1 ` mips_read_en $end
$var wire 4 a mips_write_en [3:0] $end
$var wire 32 b read_addr_hi [31:0] $end
$var wire 32 c read_addr_lo [31:0] $end
$var wire 32 d read_data [31:0] $end
$var wire 16 e read_data_hi [15:0] $end
$var wire 16 f read_data_lo [15:0] $end
$var wire 1 g rst_n $end
$var wire 32 h status [31:0] $end
$var wire 32 i test [31:0] $end
$var wire 32 j write_addr_hi [31:0] $end
$var wire 32 k write_addr_lo [31:0] $end
$var wire 32 l write_data [31:0] $end
$var wire 16 m write_data_hi [15:0] $end
$var wire 16 n write_data_lo [15:0] $end
$var wire 2 o write_en_hi [1:0] $end
$var wire 2 p write_en_lo [1:0] $end
$var reg 32 q cmd_d [31:0] $end
$var reg 1 r read_cmd_d $end
$var reg 1 s read_iobuf_d $end
$var reg 32 t status_reg [31:0] $end
$var reg 32 u test_reg [31:0] $end
$scope module cpu $end
$var wire 32 v alu_op_x_ex [31:0] $end
$var wire 32 w alu_op_x_id [31:0] $end
$var wire 32 x alu_op_y_ex [31:0] $end
$var wire 32 y alu_op_y_id [31:0] $end
$var wire 1 z alu_op_y_zero_ex $end
$var wire 4 { alu_opcode_ex [3:0] $end
$var wire 4 | alu_opcode_id [3:0] $end
$var wire 1 } alu_overflow $end
$var wire 32 ~ alu_result_ex [31:0] $end
$var wire 32 !" alu_result_mem [31:0] $end
$var wire 32 "" alu_sc_result_ex [31:0] $end
$var wire 1 H clk $end
$var wire 1 #" en $end
$var wire 1 $" en_if $end
$var wire 32 %" instr [31:0] $end
$var wire 32 &" instr_id [31:0] $end
$var wire 30 '" instr_number_id [29:0] $end
$var wire 32 (" instr_sav [31:0] $end
$var wire 32 )" jr_pc_id [31:0] $end
$var wire 1 *" jump_branch_id $end
$var wire 1 +" jump_reg_id $end
$var wire 1 ," jump_target_id $end
$var wire 32 -" mem_addr [31:0] $end
$var wire 1 ." mem_atomic_ex $end
$var wire 1 /" mem_atomic_id $end
$var wire 1 0" mem_byte_ex $end
$var wire 1 1" mem_byte_id $end
$var wire 1 2" mem_byte_mem $end
$var wire 32 3" mem_out [31:0] $end
$var wire 32 4" mem_read_data [31:0] $end
$var wire 32 5" mem_read_data_byte_extend [31:0] $end
$var wire 8 6" mem_read_data_byte_select [7:0] $end
$var wire 1 ` mem_read_en $end
$var wire 1 7" mem_read_ex $end
$var wire 1 8" mem_read_id $end
$var wire 1 9" mem_read_mem $end
$var wire 1 :" mem_sc_ex $end
$var wire 1 ;" mem_sc_id $end
$var wire 1 <" mem_sc_mask_id $end
$var wire 1 =" mem_signextend_ex $end
$var wire 1 >" mem_signextend_id $end
$var wire 1 ?" mem_signextend_mem $end
$var wire 1 @" mem_we_ex $end
$var wire 1 A" mem_we_id $end
$var wire 32 B" mem_write_data [31:0] $end
$var wire 32 C" mem_write_data_ex [31:0] $end
$var wire 32 D" mem_write_data_id [31:0] $end
$var wire 4 E" mem_write_en [3:0] $end
$var wire 1 F" movn_ex $end
$var wire 1 G" movn_id $end
$var wire 1 H" movz_ex $end
$var wire 1 I" movz_id $end
$var wire 32 J" pc [31:0] $end
$var wire 32 K" pc_id [31:0] $end
$var wire 32 L" pc_if [31:0] $end
$var wire 1 M" reg_we_cond_ex $end
$var wire 1 N" reg_we_ex $end
$var wire 1 O" reg_we_id $end
$var wire 1 P" reg_we_mem $end
$var wire 1 Q" reg_we_wb $end
$var wire 5 R" reg_write_addr_ex [4:0] $end
$var wire 5 S" reg_write_addr_id [4:0] $end
$var wire 5 T" reg_write_addr_mem [4:0] $end
$var wire 5 U" reg_write_addr_wb [4:0] $end
$var wire 32 V" reg_write_data_mem [31:0] $end
$var wire 32 W" reg_write_data_wb [31:0] $end
$var wire 5 X" rs_addr_id [4:0] $end
$var wire 32 Y" rs_data_id [31:0] $end
$var wire 1 Z" rst $end
$var wire 1 [" rst_id $end
$var wire 5 \" rt_addr_id [4:0] $end
$var wire 32 ]" rt_data_id [31:0] $end
$var wire 32 ^" sc_result [31:0] $end
$var wire 1 _" stall $end
$var wire 1 `" stall_r $end
$scope module if_stage $end
$var wire 1 H clk $end
$var wire 1 $" en $end
$var wire 26 a" instr_id [25:0] $end
$var wire 32 b" j_addr [31:0] $end
$var wire 32 c" jr_pc [31:0] $end
$var wire 1 *" jump_branch $end
$var wire 1 +" jump_reg $end
$var wire 1 ," jump_target $end
$var wire 32 d" pc [31:0] $end
$var wire 32 e" pc_id [31:0] $end
$var wire 32 f" pc_id_p4 [31:0] $end
$var wire 32 g" pc_next [31:0] $end
$var wire 1 Z" rst $end
$scope module pc_reg $end
$var wire 1 H clk $end
$var wire 32 h" d [31:0] $end
$var wire 1 $" en $end
$var wire 1 Z" r $end
$var reg 32 i" q [31:0] $end
$upscope $end
$upscope $end
$scope module pc_if2id $end
$var wire 1 H clk $end
$var wire 32 j" d [31:0] $end
$var wire 1 $" en $end
$var wire 1 Z" r $end
$var reg 32 k" q [31:0] $end
$upscope $end
$scope module instr_sav_dff $end
$var wire 1 H clk $end
$var wire 32 l" d [31:0] $end
$var wire 1 #" en $end
$var wire 1 Z" r $end
$var reg 32 m" q [31:0] $end
$upscope $end
$scope module stall_f_dff $end
$var wire 1 H clk $end
$var wire 1 _" d $end
$var wire 1 #" en $end
$var wire 1 Z" r $end
$var reg 1 n" q $end
$upscope $end
$scope module d_stage $end
$var wire 32 o" alu_op_x [31:0] $end
$var wire 32 p" alu_op_y [31:0] $end
$var wire 32 q" alu_result_ex [31:0] $end
$var wire 1 ." atomic_ex $end
$var wire 1 /" atomic_id $end
$var wire 1 r" forward_rs_ex $end
$var wire 1 s" forward_rs_mem $end
$var wire 1 t" forward_rt_ex $end
$var wire 1 u" forward_rt_mem $end
$var wire 6 v" funct [5:0] $end
$var wire 32 w" imm [31:0] $end
$var wire 32 x" imm_sign_extend [31:0] $end
$var wire 32 y" imm_upper [31:0] $end
$var wire 16 z" immediate [15:0] $end
$var wire 32 {" instr [31:0] $end
$var wire 1 |" isALUImm $end
$var wire 1 }" isBEQ $end
$var wire 1 ~" isBGEZ $end
$var wire 1 !# isBGEZAL $end
$var wire 1 "# isBGEZNL $end
$var wire 1 ## isBGTZ $end
$var wire 1 $# isBLEZ $end
$var wire 1 %# isBLTZAL $end
$var wire 1 &# isBLTZNL $end
$var wire 1 '# isBNE $end
$var wire 1 (# isBranchLink $end
$var wire 1 )# isEqual $end
$var wire 1 *# isJ $end
$var wire 1 +# isLUI $end
$var wire 1 ,# isSLL $end
$var wire 1 -# isSLLV $end
$var wire 1 .# isSRA $end
$var wire 1 /# isSRAV $end
$var wire 1 0# isSRL $end
$var wire 1 1# isSRLV $end
$var wire 1 2# isShift $end
$var wire 1 3# isShiftImm $end
$var wire 32 4# jr_pc [31:0] $end
$var wire 1 *" jump_branch $end
$var wire 1 +" jump_reg $end
$var wire 1 ," jump_target $end
$var wire 1 1" mem_byte $end
$var wire 1 8" mem_read $end
$var wire 1 7" mem_read_ex $end
$var wire 1 ;" mem_sc_id $end
$var wire 1 <" mem_sc_mask_id $end
$var wire 1 >" mem_signextend $end
$var wire 1 A" mem_we $end
$var wire 32 5# mem_write_data [31:0] $end
$var wire 1 G" movn $end
$var wire 1 I" movz $end
$var wire 6 6# op [5:0] $end
$var wire 32 7# pc [31:0] $end
$var wire 5 8# rd_addr [4:0] $end
$var wire 1 9# read_from_rs $end
$var wire 1 :# read_from_rt $end
$var wire 1 O" reg_we $end
$var wire 1 N" reg_we_ex $end
$var wire 1 P" reg_we_mem $end
$var wire 5 ;# reg_write_addr [4:0] $end
$var wire 5 <# reg_write_addr_ex [4:0] $end
$var wire 5 =# reg_write_addr_mem [4:0] $end
$var wire 32 ># reg_write_data_mem [31:0] $end
$var wire 5 ?# rs_addr [4:0] $end
$var wire 32 @# rs_data [31:0] $end
$var wire 32 A# rs_data_in [31:0] $end
$var wire 32 B# rs_data_signed [31:0] $end
$var wire 1 C# rs_mem_dependency $end
$var wire 5 D# rt_addr [4:0] $end
$var wire 32 E# rt_data [31:0] $end
$var wire 32 F# rt_data_in [31:0] $end
$var wire 1 G# rt_mem_dependency $end
$var wire 5 H# shamt [4:0] $end
$var wire 32 I# shift_amount [31:0] $end
$var wire 1 _" stall $end
$var wire 1 J# use_imm $end
$var reg 4 K# alu_opcode [3:0] $end
$upscope $end
$scope module atomic $end
$var wire 1 Z" ar $end
$var wire 1 H clk $end
$var wire 1 /" d $end
$var wire 1 #" en $end
$var wire 1 [" r $end
$var reg 1 L# q $end
$upscope $end
$scope module sc $end
$var wire 1 Z" ar $end
$var wire 1 H clk $end
$var wire 1 ;" d $end
$var wire 1 #" en $end
$var wire 1 [" r $end
$var reg 1 M# q $end
$upscope $end
$scope module alu_op_x_id2ex $end
$var wire 1 Z" ar $end
$var wire 1 H clk $end
$var wire 32 N# d [31:0] $end
$var wire 1 #" en $end
$var wire 1 [" r $end
$var reg 32 O# q [31:0] $end
$upscope $end
$scope module alu_op_y_id2ex $end
$var wire 1 Z" ar $end
$var wire 1 H clk $end
$var wire 32 P# d [31:0] $end
$var wire 1 #" en $end
$var wire 1 [" r $end
$var reg 32 Q# q [31:0] $end
$upscope $end
$scope module alu_opcode_id2ex $end
$var wire 1 Z" ar $end
$var wire 1 H clk $end
$var wire 4 R# d [3:0] $end
$var wire 1 #" en $end
$var wire 1 [" r $end
$var reg 4 S# q [3:0] $end
$upscope $end
$scope module movn $end
$var wire 1 Z" ar $end
$var wire 1 H clk $end
$var wire 1 G" d $end
$var wire 1 #" en $end
$var wire 1 [" r $end
$var reg 1 T# q $end
$upscope $end
$scope module movz $end
$var wire 1 Z" ar $end
$var wire 1 H clk $end
$var wire 1 I" d $end
$var wire 1 #" en $end
$var wire 1 [" r $end
$var reg 1 U# q $end
$upscope $end
$scope module mem_write_data_id2ex $end
$var wire 1 Z" ar $end
$var wire 1 H clk $end
$var wire 32 V# d [31:0] $end
$var wire 1 #" en $end
$var wire 1 [" r $end
$var reg 32 W# q [31:0] $end
$upscope $end
$scope module mem_we_id2ex $end
$var wire 1 Z" ar $end
$var wire 1 H clk $end
$var wire 1 X# d $end
$var wire 1 #" en $end
$var wire 1 [" r $end
$var reg 1 Y# q $end
$upscope $end
$scope module mem_read_id2ex $end
$var wire 1 Z" ar $end
$var wire 1 H clk $end
$var wire 1 8" d $end
$var wire 1 #" en $end
$var wire 1 [" r $end
$var reg 1 Z# q $end
$upscope $end
$scope module mem_byte_id2ex $end
$var wire 1 Z" ar $end
$var wire 1 H clk $end
$var wire 1 1" d $end
$var wire 1 #" en $end
$var wire 1 [" r $end
$var reg 1 [# q $end
$upscope $end
$scope module mem_signextend_id2ex $end
$var wire 1 Z" ar $end
$var wire 1 H clk $end
$var wire 1 >" d $end
$var wire 1 #" en $end
$var wire 1 [" r $end
$var reg 1 \# q $end
$upscope $end
$scope module reg_write_addr_id2ex $end
$var wire 1 Z" ar $end
$var wire 1 H clk $end
$var wire 5 ]# d [4:0] $end
$var wire 1 #" en $end
$var wire 1 [" r $end
$var reg 5 ^# q [4:0] $end
$upscope $end
$scope module reg_we_id2ex $end
$var wire 1 Z" ar $end
$var wire 1 H clk $end
$var wire 1 O" d $end
$var wire 1 #" en $end
$var wire 1 [" r $end
$var reg 1 _# q $end
$upscope $end
$scope module x_stage $end
$var wire 1 `# add_check $end
$var wire 1 a# add_neg_over $end
$var wire 1 b# add_pos_over $end
$var wire 1 c# alu_neg $end
$var wire 32 d# alu_op_x [31:0] $end
$var wire 32 e# alu_op_x_signed [31:0] $end
$var wire 32 f# alu_op_y [31:0] $end
$var wire 32 g# alu_op_y_signed [31:0] $end
$var wire 1 z alu_op_y_zero $end
$var wire 4 h# alu_opcode [3:0] $end
$var wire 1 } alu_overflow $end
$var wire 1 i# sub_check $end
$var wire 1 j# sub_neg_over $end
$var wire 1 k# sub_pos_over $end
$var wire 1 l# x_neg $end
$var wire 1 m# y_neg $end
$var reg 32 n# alu_result [31:0] $end
$upscope $end
$scope module alu_result_ex2mem $end
$var wire 1 H clk $end
$var wire 32 o# d [31:0] $end
$var wire 1 #" en $end
$var wire 1 Z" r $end
$var reg 32 p# q [31:0] $end
$upscope $end
$scope module mem_read_ex2mem $end
$var wire 1 H clk $end
$var wire 1 7" d $end
$var wire 1 #" en $end
$var wire 1 Z" r $end
$var reg 1 q# q $end
$upscope $end
$scope module mem_byte_ex2mem $end
$var wire 1 H clk $end
$var wire 1 0" d $end
$var wire 1 #" en $end
$var wire 1 Z" r $end
$var reg 1 r# q $end
$upscope $end
$scope module mem_signextend_ex2mem $end
$var wire 1 H clk $end
$var wire 1 =" d $end
$var wire 1 #" en $end
$var wire 1 Z" r $end
$var reg 1 s# q $end
$upscope $end
$scope module reg_write_addr_ex2mem $end
$var wire 1 H clk $end
$var wire 5 t# d [4:0] $end
$var wire 1 #" en $end
$var wire 1 Z" r $end
$var reg 5 u# q [4:0] $end
$upscope $end
$scope module reg_we_ex2mem $end
$var wire 1 H clk $end
$var wire 1 N" d $end
$var wire 1 #" en $end
$var wire 1 Z" r $end
$var reg 1 v# q $end
$upscope $end
$scope module reg_write_data_mem2wb $end
$var wire 1 H clk $end
$var wire 32 w# d [31:0] $end
$var wire 1 #" en $end
$var wire 1 Z" r $end
$var reg 32 x# q [31:0] $end
$upscope $end
$scope module reg_write_addr_mem2wb $end
$var wire 1 H clk $end
$var wire 5 y# d [4:0] $end
$var wire 1 #" en $end
$var wire 1 Z" r $end
$var reg 5 z# q [4:0] $end
$upscope $end
$scope module reg_we_mem2wb $end
$var wire 1 H clk $end
$var wire 1 P" d $end
$var wire 1 #" en $end
$var wire 1 Z" r $end
$var reg 1 {# q $end
$upscope $end
$scope module w_stage $end
$var wire 1 H clk $end
$var wire 1 #" en $end
$var wire 1 Q" reg_we $end
$var wire 5 |# reg_write_addr [4:0] $end
$var wire 32 }# reg_write_data [31:0] $end
$var wire 5 ~# rs_addr [4:0] $end
$var wire 32 !$ rs_data [31:0] $end
$var wire 5 "$ rt_addr [4:0] $end
$var wire 32 #$ rt_data [31:0] $end
$upscope $end
$upscope $end
$scope module mips_local_store $end
$var wire 12 $$ addr [11:0] $end
$var wire 1 H clk $end
$var wire 32 %$ din [31:0] $end
$var wire 4 &$ we [3:0] $end
$var reg 32 '$ dout [31:0] $end
$scope begin column[0] $end
$upscope $end
$scope begin column[1] $end
$upscope $end
$scope begin column[2] $end
$upscope $end
$scope begin column[3] $end
$upscope $end
$upscope $end
$upscope $end
$upscope $end
$enddefinitions $end
#0
$dumpvars
bx '$
b0 &$
b0 %$
b0 $$
bx #$
bx "$
bx !$
bx ~#
b0 }#
b0 |#
0{#
b0 z#
b0 y#
b0 x#
b0 w#
0v#
b0 u#
b0 t#
0s#
0r#
0q#
b0 p#
b0 o#
b0 n#
0m#
0l#
0k#
0j#
0i#
b0 h#
b0 g#
b0 f#
b0 e#
b0 d#
0c#
0b#
0a#
0`#
0_#
b0 ^#
bx ]#
0\#
0[#
0Z#
0Y#
xX#
b0 W#
bx V#
0U#
0T#
b0 S#
b1101 R#
b0 Q#
bx P#
b0 O#
bx N#
0M#
0L#
b1101 K#
xJ#
b0xxxxx I#
bx H#
0G#
bx F#
bx E#
bx D#
0C#
bx B#
bx A#
bx @#
bx ?#
b0 >#
b0 =#
b0 <#
bx ;#
x:#
x9#
bx 8#
b0 7#
bx 6#
bx 5#
bx 4#
x3#
x2#
x1#
x0#
x/#
x.#
x-#
x,#
x+#
x*#
x)#
x(#
x'#
x&#
x%#
x$#
x##
x"#
x!#
x~"
x}"
x|"
bx {"
bx z"
bx0000000000000000 y"
bx x"
bx w"
bx v"
0u"
0t"
0s"
0r"
b0 q"
bx p"
bx o"
0n"
b0 m"
bx l"
b0 k"
b0 j"
b0 i"
bx h"
bx g"
b100 f"
b0 e"
b0 d"
bx c"
b0xxxxxxxxxxxxxxxxxxxxxxxxxx00 b"
bx a"
0`"
0_"
b0 ^"
bx ]"
bx \"
0["
0Z"
bx Y"
bx X"
b0 W"
b0 V"
b0 U"
b0 T"
bx S"
b0 R"
0Q"
0P"
xO"
0N"
0M"
b0 L"
b0 K"
b0 J"
xI"
0H"
xG"
0F"
b0 E"
bx D"
b0 C"
b0 B"
xA"
0@"
0?"
x>"
0="
x<"
x;"
0:"
09"
x8"
07"
bx 6"
b0xxxxxxxx 5"
bx 4"
bx 3"
02"
x1"
00"
x/"
0."
b0 -"
x,"
x+"
x*"
bx )"
b0 ("
b0 '"
bx &"
bx %"
1$"
1#"
b0 ""
b0 !"
b0 ~
0}
b1101 |
b0 {
1z
bx y
b0 x
bx w
b0 v
bx u
bx t
xs
xr
bx q
b0 p
b0 o
b0 n
b0 m
b0 l
b0 k
b0 j
bx i
bx h
0g
bx f
bx e
bx d
b0 c
b0 b
b0 a
0`
bx _
b0 ^
bx ]
b0 \
b0 [
bx Z
b0xxxxxxxxxxxxxxxxxxxx10 Y
0X
0W
1V
0U
0T
bx S
b0 R
b0 Q
b0 P
bx O
0N
b0 M
b0 L
bx K
0J
b0 I
0H
b0 G
b1 F
b0 E
b0xxxxxxxxxxxxxxxxxxxx10 D
b111010001100101011100110111010001110011001011110110101001110010001011110111010001100101011100110111010000101110011100100110010101110011011101010110110001110100 C
0B
b1 A
b1 @
b0 ?
b0 >
bx =
bx <
b0 ;
b100000000000000000 :
b1111101000 9
b1110100011001010111001101110100011100110010111101101010011100100010111101100010011101010110100101101100011001000010111101100001011100000111000000101110011010000110010101111000 8
bx 7
bx 6
bx 5
bx 4
b111010001100101011100110111010001110011001011110110101001110010001011110111001101110100011100100110010101100001011011010111011101100001011101100110010100101110011101100110001101100100 3
b1 2
b0 1
00
b0 /
b0 .
b0 -
b0 ,
b0 +
b0 *
bx )
bx (
bx '
b0 &
b0 %
bx $
b0 #
b0 "
bx !
$end
#5000
02#
b0 I#
b0 w
b0 o"
b0 N#
b100 g"
b100 h"
b0 @#
b0 B#
b0 )"
b0 c"
b0 4#
0*"
03#
0(#
b10000 S"
b10000 ;#
b10000 ]#
b10000000000000100000000000000000 y
b10000000000000100000000000000000 p"
b10000000000000100000000000000000 P#
1O"
0X#
0/"
1<"
b0 Y"
b0 A#
b0 !$
0"#
0!#
0##
0$#
0~"
0&#
0%#
0,#
00#
0.#
0-#
01#
0/#
08"
0+"
b1100 K#
b1100 |
b1100 R#
b11111111111111111000000000000010 x"
b10000000000000100000000000000000 w"
0}"
0'#
0,"
0*#
1J#
09#
0:#
1+#
0|"
0A"
01"
1>"
0;"
b1111 6#
b0 X"
b0 ?#
b0 ~#
b10000 \"
b10000 D#
b10000 "$
b10000 8#
b0 H#
0G"
0I"
b10 v"
b10000000000000100000000000000000 y"
b1000000000000010 z"
b100001000000000000010 a"
b10000100000000000001000 b"
b111100000100001000000000000010 &"
b111100000100001000000000000010 {"
b111100000100001000000000000010 K
b111100000100001000000000000010 $
b111100000100001000000000000010 Z
b111100000100001000000000000010 %"
b111100000100001000000000000010 l"
bx S
bx '$
b0 u
b0 )
b0 i
b0 t
b0 (
b0 h
0s
0r
b0 q
10
1H
#10000
00
0H
#15000
bx '$
bx S
10
1H
#20000
1Z"
00
0H
b0xxxxxxxxxxxxxxxxxxxx00 D
b0xxxxxxxxxxxxxxxxxxxx00 Y
1B
1g
#25000
0)#
b10000000000000100000000000000000 E#
b10000000000000100000000000000000 D"
b10000000000000100000000000000000 5#
b10000000000000100000000000000000 V#
0V
b1000 g"
b1000 h"
bx ,
bx m
bx +
bx Q
bx -
bx n
0b#
1k#
1c#
b10000000000000100000000000000000 ""
b10000000000000100000000000000000 o#
b1 G
1N"
1t"
bx l
bx B"
bx %$
1m#
b10000000000000100000000000000000 n#
b10000000000000100000000000000000 ~
b10000000000000100000000000000000 q"
1W
b10000000000000100000000000000000 \
b10000000000000100000000000000000 -"
b1 %
b1 [
bx S
bx '$
1_#
1M"
b10000 ^#
b10000 R"
b10000 <#
b10000 t#
1\#
1="
bx W#
bx C"
b1100 S#
b1100 {
b1100 h#
b10000000000000100000000000000000 Q#
b10000000000000100000000000000000 g#
0z
b10000000000000100000000000000000 x
b10000000000000100000000000000000 f#
b111100000100001000000000000010 m"
b111100000100001000000000000010 ("
b100 i"
b100 L"
b100 d"
b100 j"
b100 ^
b100 J"
10
1H
#30000
00
0H
b1111100111 1
b0xxxxxxxxxxxxxxxxxxxx01 D
b0xxxxxxxxxxxxxxxxxxxx01 Y
#35000
b1 y
b1 p"
b1 P#
b10001 S"
b10001 ;#
b10001 ]#
b11 K#
b11 |
b11 R#
b1 x"
b1 w"
b1100 g"
b1100 h"
19#
0+#
1|"
b1101 6#
0t"
b10001 \"
b10001 D#
b10001 "$
b0 8#
b1 v"
b10000000000000000 y"
b1 z"
b100010000000000000001 a"
b10001000000000000000100 b"
b10 G
b1000000000000010 ,
b1000000000000010 m
b10000000000000100000000000000000 +
b10000000000000100000000000000000 Q
b0 -
b0 n
b110100000100010000000000000001 &"
b110100000100010000000000000001 {"
b10 %
b10 [
b1 '"
b10000000000000100000000000000000 l
b10000000000000100000000000000000 B"
b10000000000000100000000000000000 %$
b10000000000000100000000000000000 V"
b10000000000000100000000000000000 >#
b10000000000000100000000000000000 w#
bx 5"
x)#
bx E#
bx D"
bx 5#
bx V#
bx '$
bx S
b110100000100010000000000000001 K
b110100000100010000000000000001 $
b110100000100010000000000000001 Z
b110100000100010000000000000001 %"
b110100000100010000000000000001 l"
b1000 i"
b1000 L"
b1000 d"
b1000 j"
b1000 ^
b1000 J"
b100 k"
b1000 f"
b100 K"
b100 e"
b100 7#
b10000000000000100000000000000000 W#
b10000000000000100000000000000000 C"
b10000000000000100000000000000000 p#
b10000000000000100000000000000000 !"
1s#
1?"
b10000 u#
0u"
b10000 T"
b10000 =#
b10000 y#
1v#
1P"
10
1H
#40000
00
0H
b1111100110 1
#45000
b1001000 y
b1001000 p"
b1001000 P#
b1000 S"
b1000 ;#
b1000 ]#
b1001000 w"
b1001000 x"
1V
b10000 g"
b10000 h"
b1000 \"
b1000 D#
b1000 "$
b1 H#
b1000 v"
b10010000000000000000000 y"
b1001000 z"
b10000000000001001000 a"
b1000000000000100100000 b"
x)#
bx E#
bx D"
bx 5#
bx V#
bx ,
bx m
bx +
bx Q
bx -
bx n
0c#
b1 ""
b1 o#
b11 G
b110100000010000000000001001000 &"
b110100000010000000000001001000 {"
bx l
bx B"
bx %$
0k#
0m#
b1 n#
b1 ~
b1 q"
0U
0W
b1 \
b1 -"
b10 '"
b11 %
b11 [
b110100000010000000000001001000 K
b110100000010000000000001001000 $
b110100000010000000000001001000 Z
b110100000010000000000001001000 %"
b110100000010000000000001001000 l"
bx S
bx '$
1{#
1Q"
b10000 z#
b10000 U"
b10000 |#
b10000000000000100000000000000000 x#
b10000000000000100000000000000000 W"
b10000000000000100000000000000000 }#
b10001 ^#
0t"
b10001 R"
b10001 <#
b10001 t#
bx W#
bx C"
b11 S#
b11 {
b11 h#
b1 Q#
b1 g#
b1 x
b1 f#
b110100000100010000000000000001 m"
b110100000100010000000000000001 ("
b1000 k"
b1100 f"
b1000 K"
b1000 e"
b1000 7#
b1100 i"
b1100 L"
b1100 d"
b1100 j"
b1100 ^
b1100 J"
10
1H
#50000
00
0H
b1111100101 1
#55000
12#
13#
09#
b0 w"
b0 y
b0 p"
b0 P#
b0 S"
b0 ;#
b0 ]#
b0 ]"
b0 F#
b0 #$
1,#
b1010 K#
b1010 |
b1010 R#
b0 x"
b10100 g"
b10100 h"
b10010 "
b10010 L
0J#
1:#
0|"
b0 6#
b0 \"
b0 D#
b0 "$
b0 H#
b0 v"
b0 y"
b0 z"
b0 a"
b0 b"
b100 G
b1001000 ""
b1001000 o#
b10010 $$
b10010 j
b10010 *
b10010 k
b10010 b
b10010 &
b10010 c
1)#
b0 E#
b0 D"
b0 5#
b0 V#
b0 &"
b0 {"
b100 %
b100 [
b11 '"
b1001000 n#
b1001000 ~
b1001000 q"
b1001000 \
b1001000 -"
b1 V"
b1 >#
b1 w#
bx '$
bx S
b0 K
b0 $
b0 Z
b0 %"
b0 l"
b10000 i"
b10000 L"
b10000 d"
b10000 j"
b10000 ^
b10000 J"
b1100 k"
b10000 f"
b1100 K"
b1100 e"
b1100 7#
b110100000010000000000001001000 m"
b110100000010000000000001001000 ("
b1001000 Q#
b1001000 g#
b1001000 x
b1001000 f#
b1000 ^#
0t"
b1000 R"
b1000 <#
b1000 t#
b1 p#
b1 !"
b10001 u#
b10001 T"
b10001 =#
b10001 y#
10
1H
#60000
00
0H
b1111100100 1
#65000
b0 "
b0 L
b11000 g"
b11000 h"
b0 ,
b0 m
b0 +
b0 Q
b0 -
b0 n
b0 ""
b0 o#
b0 $$
b0 j
b0 *
b0 k
b0 b
b0 &
b0 c
b101 G
b1001000 V"
b1001000 >#
b1001000 w#
b0 l
b0 B"
b0 %$
b0 n#
b0 ~
b0 q"
b0 \
b0 -"
b100 '"
b101 %
b101 [
bx S
bx '$
b10001 z#
b10001 U"
b10001 |#
b1 x#
b1 W"
b1 }#
b1000 u#
b1000 T"
b1000 =#
b1000 y#
b1001000 p#
b1001000 !"
b0 ^#
b0 R"
b0 <#
b0 t#
b0 W#
b0 C"
b1010 S#
b1010 {
b1010 h#
b0 Q#
b0 g#
1z
b0 x
b0 f#
b0 m"
b0 ("
b10000 k"
b10100 f"
b10000 K"
b10000 e"
b10000 7#
b10100 i"
b10100 L"
b10100 d"
b10100 j"
b10100 ^
b10100 J"
10
1H
#70000
00
0H
b1111100011 1
#75000
b11100 g"
b11100 h"
b110 G
b110 %
b110 [
b101 '"
b0 V"
b0 >#
b0 w#
bx '$
bx S
b11000 i"
b11000 L"
b11000 d"
b11000 j"
b11000 ^
b11000 J"
b10100 k"
b11000 f"
b10100 K"
b10100 e"
b10100 7#
b0 p#
b0 !"
b0 u#
b0 T"
b0 =#
b0 y#
b1001000 x#
b1001000 W"
b1001000 }#
b1000 z#
b1000 U"
b1000 |#
10
1H
#80000
00
0H
b1111100010 1
